{
  "images" : [
    {
      "idiom" : "universal",
      "filename" : "84c1e40ea0e759e3f1505eb1788ddf3c_default_photo-2.png",
      "scale" : "1x"
    },
    {
      "idiom" : "universal",
      "filename" : "84c1e40ea0e759e3f1505eb1788ddf3c_default_photo-1.png",
      "scale" : "2x"
    },
    {
      "idiom" : "universal",
      "filename" : "84c1e40ea0e759e3f1505eb1788ddf3c_default_photo.png",
      "scale" : "3x"
    }
  ],
  "info" : {
    "version" : 1,
    "author" : "xcode"
  }
}